%YAML 1.1
%TAG !u! tag:unity3d.com,2011:
--- !u!1045 &1
EditorBuildSettings:
  m_ObjectHideFlags: 0
  serializedVersion: 2
  m_Scenes:
  - enabled: 0
    path: Assets/Scenes/Sebas/WorkScene_Sebas.unity
    guid: 339accfe5b1865341a61a216730f5acc
  - enabled: 1
    path: Assets/Scenes/Stan/MainMenu.unity
    guid: 8625ada458723e34698944a19a9aff02
  - enabled: 1
    path: Assets/Scenes/Stan/WorkScene_Stan2.unity
    guid: bf6a953ed283ea74baf3c55de4f6cc00
  - enabled: 1
    path: Assets/Scenes/MainScenes/DeathScene.unity
    guid: 109d9d59dfd5ada4fa7a9fe22c1d8c2c
  m_configObjects: {}
